backend/examples/vecsum/gnu/t_vecsum.vcd
$date
  Thu May  5 16:16:33 2016
$end
$version
  GHDL v0
$end
$timescale
  1 fs
$end
$var reg 1 ! \clear\ $end
$var reg 1 " \clk\ $end
$var reg 1 # \done\ $end
$var reg 1 $ \init\ $end
$var reg 1 % \reset\ $end
$var reg 32 & \result\[31:0] $end
$scope module uut $end
$var reg 1 ' \init\ $end
$var reg 1 ( \done\ $end
$var reg 32 ) \result\[31:0] $end
$var reg 1 * \clk\ $end
$var reg 1 + \reset\ $end
$var reg 1 , \clear\ $end
$var reg 16 - s0[15:0] $end
$var reg 16 . s1[15:0] $end
$var reg 1 / s2 $end
$var reg 32 0 s6[31:0] $end
$var reg 32 1 s7[31:0] $end
$var reg 32 2 s8[31:0] $end
$var reg 32 3 s9[31:0] $end
$var reg 16 4 s10[15:0] $end
$var reg 16 5 s11[15:0] $end
$var reg 1 6 s12 $end
$var reg 1 7 s13[0:0] $end
$var reg 1 8 s14 $end
$var reg 1 9 s15[0:0] $end
$scope module \c13\ $end
$var reg 16 : a[15:0] $end
$var reg 1 ; clk $end
$var reg 1 < reset $end
$var reg 16 = a_delayed[15:0] $end
$comment int is not handled $end
$upscope $end
$scope module \c14\ $end
$var reg 1 > a[0:0] $end
$var reg 1 ? clk $end
$var reg 1 @ reset $end
$var reg 1 A a_delayed[0:0] $end
$comment int is not handled $end
$upscope $end
$scope module \c15\ $end
$var reg 1 B a[0:0] $end
$var reg 1 C clk $end
$var reg 1 D reset $end
$var reg 1 E a_delayed[0:0] $end
$comment int is not handled $end
$upscope $end
$scope module \c_add_op_s_y\ $end
$var reg 32 F i0[31:0] $end
$var reg 32 G i1[31:0] $end
$var reg 32 H o0[31:0] $end
$upscope $end
$scope module \z\ $end
$var reg 32 I data_in[31:0] $end
$var reg 11 J address[10:0] $end
$var reg 1 K we $end
$var reg 1 L oe $end
$var reg 1 M clk $end
$var reg 32 N data_out[31:0] $end
$var reg 11 O read_a[10:0] $end
$comment ram is not handled $end
$upscope $end
$scope module \x\ $end
$var reg 32 P data_in[31:0] $end
$var reg 11 Q address[10:0] $end
$var reg 1 R we $end
$var reg 1 S oe $end
$var reg 1 T clk $end
$var reg 32 U data_out[31:0] $end
$var reg 11 V read_a[10:0] $end
$comment ram is not handled $end
$upscope $end
$scope module \y\ $end
$var reg 32 W data_in[31:0] $end
$var reg 11 X address[10:0] $end
$var reg 1 Y we $end
$var reg 1 Z oe $end
$var reg 1 [ clk $end
$var reg 32 \ data_out[31:0] $end
$var reg 11 ] read_a[10:0] $end
$comment ram is not handled $end
$upscope $end
$scope module \i\ $end
$var reg 16 ^ input[15:0] $end
$var reg 16 _ termination[15:0] $end
$var reg 1 ` clk $end
$var reg 1 a clk_en $end
$var reg 1 b reset $end
$var reg 1 c load $end
$var reg 1 d step $end
$var reg 1 e done $end
$var reg 16 f output[15:0] $end
$var reg 1 g shsteps[0:0] $end
$var reg 16 h value[15:0] $end
$var reg 1 i init $end
$var reg 1 j stepi $end
$var reg 1 k cond $end
$upscope $end
$upscope $end
$enddefinitions $end
#0
0!
0"
0#
0$
1%
bUUUUUUUUUUUUUUUUUUUUUUUUUUUUUUUU &
0'
0(
bUUUUUUUUUUUUUUUUUUUUUUUUUUUUUUUU )
0*
1+
0,
b0000000000000000 -
b0000100000000000 .
0/
bUUUUUUUUUUUUUUUUUUUUUUUUUUUUUUUU 0
bUUUUUUUUUUUUUUUUUUUUUUUUUUUUUUUU 1
bXXXXXXXXXXXXXXXXXXXXXXXXXXXXXXXX 2
bUUUUUUUUUUUUUUUUUUUUUUUUUUUUUUUU 3
b0000000000000000 4
b0000000000000000 5
06
b0 7
08
b0 9
b0000000000000000 :
0;
1<
b0000000000000000 =
b0 >
0?
1@
b0 A
b0 B
0C
1D
b0 E
bUUUUUUUUUUUUUUUUUUUUUUUUUUUUUUUU F
bUUUUUUUUUUUUUUUUUUUUUUUUUUUUUUUU G
bXXXXXXXXXXXXXXXXXXXXXXXXXXXXXXXX H
bXXXXXXXXXXXXXXXXXXXXXXXXXXXXXXXX I
b00000000000 J
0K
1L
0M
bUUUUUUUUUUUUUUUUUUUUUUUUUUUUUUUU N
bUUUUUUUUUUU O
b00000000000000000000000000000000 P
b00000000000 Q
0R
1S
0T
bUUUUUUUUUUUUUUUUUUUUUUUUUUUUUUUU U
bUUUUUUUUUUU V
b00000000000000000000000000000000 W
b00000000000 X
0Y
1Z
0[
bUUUUUUUUUUUUUUUUUUUUUUUUUUUUUUUU \
bUUUUUUUUUUU ]
b0000000000000000 ^
b0000100000000000 _
0`
0a
1b
0c
0d
0e
b0000000000000000 f
b1 g
b0000000000000000 h
1i
0j
1k
#5000000
1"
1*
b00000000000000000000000000000001 0
b00000000000000000000000000000110 1
b00000000000000000000000000000111 2
1;
1?
1C
b00000000000000000000000000000001 F
b00000000000000000000000000000110 G
b00000000000000000000000000000111 H
b00000000000000000000000000000111 I
1M
b00000000000 O
1T
b00000000000000000000000000000001 U
b00000000000 V
1[
b00000000000000000000000000000110 \
b00000000000 ]
1`
#10000000
0"
0*
0;
0?
0C
0M
0T
0[
0`
#15000000
1"
1*
1;
1?
1C
1M
1T
1[
1`
#20000000
0"
0*
0;
0?
0C
0M
0T
0[
0`
#25000000
1"
1*
1;
1?
1C
1M
1T
1[
1`
#30000000
0"
0*
0;
0?
0C
0M
0T
0[
0`
#35000000
1"
1*
1;
1?
1C
1M
1T
1[
1`
#40000000
0"
0*
0;
0?
0C
0M
0T
0[
0`
#45000000
1"
1*
1;
1?
1C
1M
1T
1[
1`
#50000000
0"
0%
0*
0+
0;
0<
0?
0@
0C
0D
0M
0T
0[
0`
0b
#55000000
1"
1*
1;
1?
1C
1M
1T
1[
1`
#60000000
0"
0*
0;
0?
0C
0M
0T
0[
0`
#65000000
1"
1*
1;
1?
1C
1M
1T
1[
1`
#70000000
0"
0*
0;
0?
0C
0M
0T
0[
0`
#75000000
1"
1*
1;
1?
1C
1M
1T
1[
1`
#80000000
0"
0*
0;
0?
0C
0M
0T
0[
0`
#85000000
1"
1*
1;
1?
1C
1M
1T
1[
1`
#90000000
0"
0*
0;
0?
0C
0M
0T
0[
0`
#95000000
1"
1*
1;
1?
1C
1M
1T
1[
1`
#100000000
0"
1$
1'
0*
1/
0;
0?
0C
0M
0T
0[
0`
1a
#105000000
1"
1*
16
1;
b1 >
1?
1C
1M
1T
1[
1`
1d
0i
1j
#110000000
0"
0*
0;
0?
0C
0M
0T
0[
0`
#115000000
1"
1*
b0000000000000001 4
b0000000000000001 :
1;
1?
1C
1M
b00000000001 Q
1T
b00000000001 X
1[
1`
b0000000000000001 f
b0000000000000001 h
#120000000
0"
0*
0;
0?
0C
0M
0T
0[
0`
#125000000
1"
1*
b0000000000000010 4
b1 7
b0000000000000010 :
1;
1?
b1 A
1C
1K
1M
b00000000010 Q
1T
b00000000001 V
b00000000010 X
1[
b00000000001 ]
1`
b0000000000000010 f
b0000000000000010 h
#130000000
0"
0*
0;
0?
0C
0M
0T
0[
0`
#135000000
1"
1*
b00000000000000000000000000000010 0
b00000000000000000000000000000100 1
b00000000000000000000000000000110 2
b0000000000000011 4
b0000000000000001 5
b0000000000000011 :
1;
b0000000000000001 =
1?
1C
b00000000000000000000000000000010 F
b00000000000000000000000000000100 G
b00000000000000000000000000000110 H
b00000000000000000000000000000110 I
b00000000001 J
1M
b00000000011 Q
1T
b00000000000000000000000000000010 U
b00000000010 V
b00000000011 X
1[
b00000000000000000000000000000100 \
b00000000010 ]
1`
b0000000000000011 f
b0000000000000011 h
#140000000
0"
0*
0;
0?
0C
0M
0T
0[
0`
#145000000
1"
b00000000000000000000000000000111 &
b00000000000000000000000000000111 )
1*
b00000000000000000000000000000011 0
b00000000000000000000000000000011 1
b00000000000000000000000000000111 3
b0000000000000100 4
b0000000000000010 5
b0000000000000100 :
1;
b0000000000000010 =
1?
1C
b00000000000000000000000000000011 F
b00000000000000000000000000000011 G
b00000000010 J
1M
b00000000000000000000000000000111 N
b00000000001 O
b00000000100 Q
1T
b00000000000000000000000000000011 U
b00000000011 V
b00000000100 X
1[
b00000000000000000000000000000011 \
b00000000011 ]
1`
b0000000000000100 f
b0000000000000100 h
#150000000
0"
0*
0;
0?
0C
0M
0T
0[
0`
#155000000
1"
b00000000000000000000000000000110 &
b00000000000000000000000000000110 )
1*
b00000000000000000000000000000000 0
b00000000000000000000000000000000 1
b00000000000000000000000000000000 2
b00000000000000000000000000000110 3
b0000000000000101 4
b0000000000000011 5
b0000000000000101 :
1;
b0000000000000011 =
1?
1C
b00000000000000000000000000000000 F
b00000000000000000000000000000000 G
b00000000000000000000000000000000 H
b00000000000000000000000000000000 I
b00000000011 J
1M
b00000000000000000000000000000110 N
b00000000010 O
b00000000101 Q
1T
b00000000000000000000000000000000 U
b00000000100 V
b00000000101 X
1[
b00000000000000000000000000000000 \
b00000000100 ]
1`
b0000000000000101 f
b0000000000000101 h
#160000000
0"
0*
0;
0?
0C
0M
0T
0[
0`
#165000000
1"
1*
b0000000000000110 4
b0000000000000100 5
b0000000000000110 :
1;
b0000000000000100 =
1?
1C
b00000000100 J
1M
b00000000011 O
b00000000110 Q
1T
b00000000101 V
b00000000110 X
1[
b00000000101 ]
1`
b0000000000000110 f
b0000000000000110 h
#170000000
0"
0*
0;
0?
0C
0M
0T
0[
0`
#175000000
1"
b00000000000000000000000000000000 &
b00000000000000000000000000000000 )
1*
b00000000000000000000000000000000 3
b0000000000000111 4
b0000000000000101 5
b0000000000000111 :
1;
b0000000000000101 =
1?
1C
b00000000101 J
1M
b00000000000000000000000000000000 N
b00000000100 O
b00000000111 Q
1T
b00000000110 V
b00000000111 X
1[
b00000000110 ]
1`
b0000000000000111 f
b0000000000000111 h
#180000000
0"
0*
0;
0?
0C
0M
0T
0[
0`
#185000000
1"
1*
b0000000000001000 4
b0000000000000110 5
b0000000000001000 :
1;
b0000000000000110 =
1?
1C
b00000000110 J
1M
b00000000101 O
b00000001000 Q
1T
b00000000111 V
b00000001000 X
1[
b00000000111 ]
1`
b0000000000001000 f
b0000000000001000 h
#190000000
0"
0*
0;
0?
0C
0M
0T
0[
0`
#195000000
1"
1*
b0000000000001001 4
b0000000000000111 5
b0000000000001001 :
1;
b0000000000000111 =
1?
1C
b00000000111 J
1M
b00000000110 O
b00000001001 Q
1T
b00000001000 V
b00000001001 X
1[
b00000001000 ]
1`
b0000000000001001 f
b0000000000001001 h
#200000000
0"
0*
0;
0?
0C
0M
0T
0[
0`
#205000000
1"
1*
b0000000000001010 4
b0000000000001000 5
b0000000000001010 :
1;
b0000000000001000 =
1?
1C
b00000001000 J
1M
b00000000111 O
b00000001010 Q
1T
b00000001001 V
b00000001010 X
1[
b00000001001 ]
1`
b0000000000001010 f
b0000000000001010 h
#210000000
0"
0*
0;
0?
0C
0M
0T
0[
0`
#215000000
1"
1*
b0000000000001011 4
b0000000000001001 5
b0000000000001011 :
1;
b0000000000001001 =
1?
1C
b00000001001 J
1M
b00000001000 O
b00000001011 Q
1T
b00000001010 V
b00000001011 X
1[
b00000001010 ]
1`
b0000000000001011 f
b0000000000001011 h
#220000000
0"
0*
0;
0?
0C
0M
0T
0[
0`
#225000000
1"
1*
b0000000000001100 4
b0000000000001010 5
b0000000000001100 :
1;
b0000000000001010 =
1?
1C
b00000001010 J
1M
b00000001001 O
b00000001100 Q
1T
b00000001011 V
b00000001100 X
1[
b00000001011 ]
1`
b0000000000001100 f
b0000000000001100 h
#230000000
0"
0*
0;
0?
0C
0M
0T
0[
0`
#235000000
1"
1*
b0000000000001101 4
b0000000000001011 5
b0000000000001101 :
1;
b0000000000001011 =
1?
1C
b00000001011 J
1M
b00000001010 O
b00000001101 Q
1T
b00000001100 V
b00000001101 X
1[
b00000001100 ]
1`
b0000000000001101 f
b0000000000001101 h
#240000000
0"
0*
0;
0?
0C
0M
0T
0[
0`
#245000000
1"
1*
b0000000000001110 4
b0000000000001100 5
b0000000000001110 :
1;
b0000000000001100 =
1?
1C
b00000001100 J
1M
b00000001011 O
b00000001110 Q
1T
b00000001101 V
b00000001110 X
1[
b00000001101 ]
1`
b0000000000001110 f
b0000000000001110 h
#250000000
0"
0*
0;
0?
0C
0M
0T
0[
0`
#255000000
1"
1*
b0000000000001111 4
b0000000000001101 5
b0000000000001111 :
1;
b0000000000001101 =
1?
1C
b00000001101 J
1M
b00000001100 O
b00000001111 Q
1T
b00000001110 V
b00000001111 X
1[
b00000001110 ]
1`
b0000000000001111 f
b0000000000001111 h
#260000000
0"
0*
0;
0?
0C
0M
0T
0[
0`
#265000000
1"
1*
b0000000000010000 4
b0000000000001110 5
b0000000000010000 :
1;
b0000000000001110 =
1?
1C
b00000001110 J
1M
b00000001101 O
b00000010000 Q
1T
b00000001111 V
b00000010000 X
1[
b00000001111 ]
1`
b0000000000010000 f
b0000000000010000 h
#270000000
0"
0*
0;
0?
0C
0M
0T
0[
0`
#275000000
1"
1*
b0000000000010001 4
b0000000000001111 5
b0000000000010001 :
1;
b0000000000001111 =
1?
1C
b00000001111 J
1M
b00000001110 O
b00000010001 Q
1T
b00000010000 V
b00000010001 X
1[
b00000010000 ]
1`
b0000000000010001 f
b0000000000010001 h
#280000000
0"
0*
0;
0?
0C
0M
0T
0[
0`
#285000000
1"
1*
b0000000000010010 4
b0000000000010000 5
b0000000000010010 :
1;
b0000000000010000 =
1?
1C
b00000010000 J
1M
b00000001111 O
b00000010010 Q
1T
b00000010001 V
b00000010010 X
1[
b00000010001 ]
1`
b0000000000010010 f
b0000000000010010 h
#290000000
0"
0*
0;
0?
0C
0M
0T
0[
0`
#295000000
1"
1*
b0000000000010011 4
b0000000000010001 5
b0000000000010011 :
1;
b0000000000010001 =
1?
1C
b00000010001 J
1M
b00000010000 O
b00000010011 Q
1T
b00000010010 V
b00000010011 X
1[
b00000010010 ]
1`
b0000000000010011 f
b0000000000010011 h
#300000000
0"
0*
0;
0?
0C
0M
0T
0[
0`
#305000000
1"
1*
b0000000000010100 4
b0000000000010010 5
b0000000000010100 :
1;
b0000000000010010 =
1?
1C
b00000010010 J
1M
b00000010001 O
b00000010100 Q
1T
b00000010011 V
b00000010100 X
1[
b00000010011 ]
1`
b0000000000010100 f
b0000000000010100 h
#310000000
0"
0*
0;
0?
0C
0M
0T
0[
0`
#315000000
1"
1*
b0000000000010101 4
b0000000000010011 5
b0000000000010101 :
1;
b0000000000010011 =
1?
1C
b00000010011 J
1M
b00000010010 O
b00000010101 Q
1T
b00000010100 V
b00000010101 X
1[
b00000010100 ]
1`
b0000000000010101 f
b0000000000010101 h
#320000000
0"
0*
0;
0?
0C
0M
0T
0[
0`
#325000000
1"
1*
b0000000000010110 4
b0000000000010100 5
b0000000000010110 :
1;
b0000000000010100 =
1?
1C
b00000010100 J
1M
b00000010011 O
b00000010110 Q
1T
b00000010101 V
b00000010110 X
1[
b00000010101 ]
1`
b0000000000010110 f
b0000000000010110 h
#330000000
0"
0*
0;
0?
0C
0M
0T
0[
0`
#335000000
1"
1*
b0000000000010111 4
b0000000000010101 5
b0000000000010111 :
1;
b0000000000010101 =
1?
1C
b00000010101 J
1M
b00000010100 O
b00000010111 Q
1T
b00000010110 V
b00000010111 X
1[
b00000010110 ]
1`
b0000000000010111 f
b0000000000010111 h
#340000000
0"
0*
0;
0?
0C
0M
0T
0[
0`
#345000000
1"
1*
b0000000000011000 4
b0000000000010110 5
b0000000000011000 :
1;
b0000000000010110 =
1?
1C
b00000010110 J
1M
b00000010101 O
b00000011000 Q
1T
b00000010111 V
b00000011000 X
1[
b00000010111 ]
1`
b0000000000011000 f
b0000000000011000 h
#350000000
0"
0*
0;
0?
0C
0M
0T
0[
0`
#355000000
1"
1*
b0000000000011001 4
b0000000000010111 5
b0000000000011001 :
1;
b0000000000010111 =
1?
1C
b00000010111 J
1M
b00000010110 O
b00000011001 Q
1T
b00000011000 V
b00000011001 X
1[
b00000011000 ]
1`
b0000000000011001 f
b0000000000011001 h
#360000000
0"
0*
0;
0?
0C
0M
0T
0[
0`
#365000000
1"
1*
b0000000000011010 4
b0000000000011000 5
b0000000000011010 :
1;
b0000000000011000 =
1?
1C
b00000011000 J
1M
b00000010111 O
b00000011010 Q
1T
b00000011001 V
b00000011010 X
1[
b00000011001 ]
1`
b0000000000011010 f
b0000000000011010 h
#370000000
0"
0*
0;
0?
0C
0M
0T
0[
0`
#375000000
1"
1*
b0000000000011011 4
b0000000000011001 5
b0000000000011011 :
1;
b0000000000011001 =
1?
1C
b00000011001 J
1M
b00000011000 O
b00000011011 Q
1T
b00000011010 V
b00000011011 X
1[
b00000011010 ]
1`
b0000000000011011 f
b0000000000011011 h
#380000000
0"
0*
0;
0?
0C
0M
0T
0[
0`
#385000000
1"
1*
b0000000000011100 4
b0000000000011010 5
b0000000000011100 :
1;
b0000000000011010 =
1?
1C
b00000011010 J
1M
b00000011001 O
b00000011100 Q
1T
b00000011011 V
b00000011100 X
1[
b00000011011 ]
1`
b0000000000011100 f
b0000000000011100 h
#390000000
0"
0*
0;
0?
0C
0M
0T
0[
0`
#395000000
1"
1*
b0000000000011101 4
b0000000000011011 5
b0000000000011101 :
1;
b0000000000011011 =
1?
1C
b00000011011 J
1M
b00000011010 O
b00000011101 Q
1T
b00000011100 V
b00000011101 X
1[
b00000011100 ]
1`
b0000000000011101 f
b0000000000011101 h
#400000000
0"
0*
0;
0?
0C
0M
0T
0[
0`
#405000000
1"
1*
b0000000000011110 4
b0000000000011100 5
b0000000000011110 :
1;
b0000000000011100 =
1?
1C
b00000011100 J
1M
b00000011011 O
b00000011110 Q
1T
b00000011101 V
b00000011110 X
1[
b00000011101 ]
1`
b0000000000011110 f
b0000000000011110 h
#410000000
0"
0*
0;
0?
0C
0M
0T
0[
0`
#415000000
1"
1*
b0000000000011111 4
b0000000000011101 5
b0000000000011111 :
1;
b0000000000011101 =
1?
1C
b00000011101 J
1M
b00000011100 O
b00000011111 Q
1T
b00000011110 V
b00000011111 X
1[
b00000011110 ]
1`
b0000000000011111 f
b0000000000011111 h
#420000000
0"
0*
0;
0?
0C
0M
0T
0[
0`
#425000000
1"
1*
b0000000000100000 4
b0000000000011110 5
b0000000000100000 :
1;
b0000000000011110 =
1?
1C
b00000011110 J
1M
b00000011101 O
b00000100000 Q
1T
b00000011111 V
b00000100000 X
1[
b00000011111 ]
1`
b0000000000100000 f
b0000000000100000 h
#430000000
0"
0*
0;
0?
0C
0M
0T
0[
0`
#435000000
1"
1*
b0000000000100001 4
b0000000000011111 5
b0000000000100001 :
1;
b0000000000011111 =
1?
1C
b00000011111 J
1M
b00000011110 O
b00000100001 Q
1T
b00000100000 V
b00000100001 X
1[
b00000100000 ]
1`
b0000000000100001 f
b0000000000100001 h
#440000000
0"
0*
0;
0?
0C
0M
0T
0[
0`
#445000000
1"
1*
b0000000000100010 4
b0000000000100000 5
b0000000000100010 :
1;
b0000000000100000 =
1?
1C
b00000100000 J
1M
b00000011111 O
b00000100010 Q
1T
b00000100001 V
b00000100010 X
1[
b00000100001 ]
1`
b0000000000100010 f
b0000000000100010 h
#450000000
0"
0*
0;
0?
0C
0M
0T
0[
0`
#455000000
1"
1*
b0000000000100011 4
b0000000000100001 5
b0000000000100011 :
1;
b0000000000100001 =
1?
1C
b00000100001 J
1M
b00000100000 O
b00000100011 Q
1T
b00000100010 V
b00000100011 X
1[
b00000100010 ]
1`
b0000000000100011 f
b0000000000100011 h
#460000000
0"
0*
0;
0?
0C
0M
0T
0[
0`
#465000000
1"
1*
b0000000000100100 4
b0000000000100010 5
b0000000000100100 :
1;
b0000000000100010 =
1?
1C
b00000100010 J
1M
b00000100001 O
b00000100100 Q
1T
b00000100011 V
b00000100100 X
1[
b00000100011 ]
1`
b0000000000100100 f
b0000000000100100 h
#470000000
0"
0*
0;
0?
0C
0M
0T
0[
0`
#475000000
1"
1*
b0000000000100101 4
b0000000000100011 5
b0000000000100101 :
1;
b0000000000100011 =
1?
1C
b00000100011 J
1M
b00000100010 O
b00000100101 Q
1T
b00000100100 V
b00000100101 X
1[
b00000100100 ]
1`
b0000000000100101 f
b0000000000100101 h
#480000000
0"
0*
0;
0?
0C
0M
0T
0[
0`
#485000000
1"
1*
b0000000000100110 4
b0000000000100100 5
b0000000000100110 :
1;
b0000000000100100 =
1?
1C
b00000100100 J
1M
b00000100011 O
b00000100110 Q
1T
b00000100101 V
b00000100110 X
1[
b00000100101 ]
1`
b0000000000100110 f
b0000000000100110 h
#490000000
0"
0*
0;
0?
0C
0M
0T
0[
0`
#495000000
1"
1*
b0000000000100111 4
b0000000000100101 5
b0000000000100111 :
1;
b0000000000100101 =
1?
1C
b00000100101 J
1M
b00000100100 O
b00000100111 Q
1T
b00000100110 V
b00000100111 X
1[
b00000100110 ]
1`
b0000000000100111 f
b0000000000100111 h
#500000000
0"
0*
0;
0?
0C
0M
0T
0[
0`
#505000000
1"
1*
b0000000000101000 4
b0000000000100110 5
b0000000000101000 :
1;
b0000000000100110 =
1?
1C
b00000100110 J
1M
b00000100101 O
b00000101000 Q
1T
b00000100111 V
b00000101000 X
1[
b00000100111 ]
1`
b0000000000101000 f
b0000000000101000 h
#510000000
0"
0*
0;
0?
0C
0M
0T
0[
0`
#515000000
1"
1*
b0000000000101001 4
b0000000000100111 5
b0000000000101001 :
1;
b0000000000100111 =
1?
1C
b00000100111 J
1M
b00000100110 O
b00000101001 Q
1T
b00000101000 V
b00000101001 X
1[
b00000101000 ]
1`
b0000000000101001 f
b0000000000101001 h
#520000000
0"
0*
0;
0?
0C
0M
0T
0[
0`
#525000000
1"
1*
b0000000000101010 4
b0000000000101000 5
b0000000000101010 :
1;
b0000000000101000 =
1?
1C
b00000101000 J
1M
b00000100111 O
b00000101010 Q
1T
b00000101001 V
b00000101010 X
1[
b00000101001 ]
1`
b0000000000101010 f
b0000000000101010 h
#530000000
0"
0*
0;
0?
0C
0M
0T
0[
0`
#535000000
1"
1*
b0000000000101011 4
b0000000000101001 5
b0000000000101011 :
1;
b0000000000101001 =
1?
1C
b00000101001 J
1M
b00000101000 O
b00000101011 Q
1T
b00000101010 V
b00000101011 X
1[
b00000101010 ]
1`
b0000000000101011 f
b0000000000101011 h
#540000000
0"
0*
0;
0?
0C
0M
0T
0[
0`
#545000000
1"
1*
b0000000000101100 4
b0000000000101010 5
b0000000000101100 :
1;
b0000000000101010 =
1?
1C
b00000101010 J
1M
b00000101001 O
b00000101100 Q
1T
b00000101011 V
b00000101100 X
1[
b00000101011 ]
1`
b0000000000101100 f
b0000000000101100 h
#550000000
0"
0*
0;
0?
0C
0M
0T
0[
0`
#555000000
1"
1*
b0000000000101101 4
b0000000000101011 5
b0000000000101101 :
1;
b0000000000101011 =
1?
1C
b00000101011 J
1M
b00000101010 O
b00000101101 Q
1T
b00000101100 V
b00000101101 X
1[
b00000101100 ]
1`
b0000000000101101 f
b0000000000101101 h
#560000000
0"
0*
0;
0?
0C
0M
0T
0[
0`
#565000000
1"
1*
b0000000000101110 4
b0000000000101100 5
b0000000000101110 :
1;
b0000000000101100 =
1?
1C
b00000101100 J
1M
b00000101011 O
b00000101110 Q
1T
b00000101101 V
b00000101110 X
1[
b00000101101 ]
1`
b0000000000101110 f
b0000000000101110 h
#570000000
0"
0*
0;
0?
0C
0M
0T
0[
0`
#575000000
1"
1*
b0000000000101111 4
b0000000000101101 5
b0000000000101111 :
1;
b0000000000101101 =
1?
1C
b00000101101 J
1M
b00000101100 O
b00000101111 Q
1T
b00000101110 V
b00000101111 X
1[
b00000101110 ]
1`
b0000000000101111 f
b0000000000101111 h
#580000000
0"
0*
0;
0?
0C
0M
0T
0[
0`
#585000000
1"
1*
b0000000000110000 4
b0000000000101110 5
b0000000000110000 :
1;
b0000000000101110 =
1?
1C
b00000101110 J
1M
b00000101101 O
b00000110000 Q
1T
b00000101111 V
b00000110000 X
1[
b00000101111 ]
1`
b0000000000110000 f
b0000000000110000 h
#590000000
0"
0*
0;
0?
0C
0M
0T
0[
0`
#595000000
1"
1*
b0000000000110001 4
b0000000000101111 5
b0000000000110001 :
1;
b0000000000101111 =
1?
1C
b00000101111 J
1M
b00000101110 O
b00000110001 Q
1T
b00000110000 V
b00000110001 X
1[
b00000110000 ]
1`
b0000000000110001 f
b0000000000110001 h
#600000000
0"
0*
0;
0?
0C
0M
0T
0[
0`
#605000000
1"
1*
b0000000000110010 4
b0000000000110000 5
b0000000000110010 :
1;
b0000000000110000 =
1?
1C
b00000110000 J
1M
b00000101111 O
b00000110010 Q
1T
b00000110001 V
b00000110010 X
1[
b00000110001 ]
1`
b0000000000110010 f
b0000000000110010 h
#610000000
0"
0*
0;
0?
0C
0M
0T
0[
0`
#615000000
1"
1*
b0000000000110011 4
b0000000000110001 5
b0000000000110011 :
1;
b0000000000110001 =
1?
1C
b00000110001 J
1M
b00000110000 O
b00000110011 Q
1T
b00000110010 V
b00000110011 X
1[
b00000110010 ]
1`
b0000000000110011 f
b0000000000110011 h
#620000000
0"
0*
0;
0?
0C
0M
0T
0[
0`
#625000000
1"
1*
b0000000000110100 4
b0000000000110010 5
b0000000000110100 :
1;
b0000000000110010 =
1?
1C
b00000110010 J
1M
b00000110001 O
b00000110100 Q
1T
b00000110011 V
b00000110100 X
1[
b00000110011 ]
1`
b0000000000110100 f
b0000000000110100 h
#630000000
0"
0*
0;
0?
0C
0M
0T
0[
0`
#635000000
1"
1*
b0000000000110101 4
b0000000000110011 5
b0000000000110101 :
1;
b0000000000110011 =
1?
1C
b00000110011 J
1M
b00000110010 O
b00000110101 Q
1T
b00000110100 V
b00000110101 X
1[
b00000110100 ]
1`
b0000000000110101 f
b0000000000110101 h
#640000000
0"
0*
0;
0?
0C
0M
0T
0[
0`
#645000000
1"
1*
b0000000000110110 4
b0000000000110100 5
b0000000000110110 :
1;
b0000000000110100 =
1?
1C
b00000110100 J
1M
b00000110011 O
b00000110110 Q
1T
b00000110101 V
b00000110110 X
1[
b00000110101 ]
1`
b0000000000110110 f
b0000000000110110 h
#650000000
0"
0*
0;
0?
0C
0M
0T
0[
0`
#655000000
1"
1*
b0000000000110111 4
b0000000000110101 5
b0000000000110111 :
1;
b0000000000110101 =
1?
1C
b00000110101 J
1M
b00000110100 O
b00000110111 Q
1T
b00000110110 V
b00000110111 X
1[
b00000110110 ]
1`
b0000000000110111 f
b0000000000110111 h
#660000000
0"
0*
0;
0?
0C
0M
0T
0[
0`
#665000000
1"
1*
b0000000000111000 4
b0000000000110110 5
b0000000000111000 :
1;
b0000000000110110 =
1?
1C
b00000110110 J
1M
b00000110101 O
b00000111000 Q
1T
b00000110111 V
b00000111000 X
1[
b00000110111 ]
1`
b0000000000111000 f
b0000000000111000 h
#670000000
0"
0*
0;
0?
0C
0M
0T
0[
0`
#675000000
1"
1*
b0000000000111001 4
b0000000000110111 5
b0000000000111001 :
1;
b0000000000110111 =
1?
1C
b00000110111 J
1M
b00000110110 O
b00000111001 Q
1T
b00000111000 V
b00000111001 X
1[
b00000111000 ]
1`
b0000000000111001 f
b0000000000111001 h
#680000000
0"
0*
0;
0?
0C
0M
0T
0[
0`
#685000000
1"
1*
b0000000000111010 4
b0000000000111000 5
b0000000000111010 :
1;
b0000000000111000 =
1?
1C
b00000111000 J
1M
b00000110111 O
b00000111010 Q
1T
b00000111001 V
b00000111010 X
1[
b00000111001 ]
1`
b0000000000111010 f
b0000000000111010 h
#690000000
0"
0*
0;
0?
0C
0M
0T
0[
0`
#695000000
1"
1*
b0000000000111011 4
b0000000000111001 5
b0000000000111011 :
1;
b0000000000111001 =
1?
1C
b00000111001 J
1M
b00000111000 O
b00000111011 Q
1T
b00000111010 V
b00000111011 X
1[
b00000111010 ]
1`
b0000000000111011 f
b0000000000111011 h
#700000000
0"
0*
0;
0?
0C
0M
0T
0[
0`
#705000000
1"
1*
b0000000000111100 4
b0000000000111010 5
b0000000000111100 :
1;
b0000000000111010 =
1?
1C
b00000111010 J
1M
b00000111001 O
b00000111100 Q
1T
b00000111011 V
b00000111100 X
1[
b00000111011 ]
1`
b0000000000111100 f
b0000000000111100 h
#710000000
0"
0*
0;
0?
0C
0M
0T
0[
0`
#715000000
1"
1*
b0000000000111101 4
b0000000000111011 5
b0000000000111101 :
1;
b0000000000111011 =
1?
1C
b00000111011 J
1M
b00000111010 O
b00000111101 Q
1T
b00000111100 V
b00000111101 X
1[
b00000111100 ]
1`
b0000000000111101 f
b0000000000111101 h
#720000000
0"
0*
0;
0?
0C
0M
0T
0[
0`
#725000000
1"
1*
b0000000000111110 4
b0000000000111100 5
b0000000000111110 :
1;
b0000000000111100 =
1?
1C
b00000111100 J
1M
b00000111011 O
b00000111110 Q
1T
b00000111101 V
b00000111110 X
1[
b00000111101 ]
1`
b0000000000111110 f
b0000000000111110 h
#730000000
0"
0*
0;
0?
0C
0M
0T
0[
0`
#735000000
1"
1*
b0000000000111111 4
b0000000000111101 5
b0000000000111111 :
1;
b0000000000111101 =
1?
1C
b00000111101 J
1M
b00000111100 O
b00000111111 Q
1T
b00000111110 V
b00000111111 X
1[
b00000111110 ]
1`
b0000000000111111 f
b0000000000111111 h
#740000000
0"
0*
0;
0?
0C
0M
0T
0[
0`
#745000000
1"
1*
b0000000001000000 4
b0000000000111110 5
b0000000001000000 :
1;
b0000000000111110 =
1?
1C
b00000111110 J
1M
b00000111101 O
b00001000000 Q
1T
b00000111111 V
b00001000000 X
1[
b00000111111 ]
1`
b0000000001000000 f
b0000000001000000 h
#750000000
0"
0*
0;
0?
0C
0M
0T
0[
0`
