backend/examples/dotprod/gnu/t_dotprod.vcd
$date
  Fri Oct  7 04:44:49 2016
$end
$version
  GHDL v0
$end
$timescale
  1 fs
$end
$var reg 1 ! \clear\ $end
$var reg 1 " \clk\ $end
$var reg 1 # \done\ $end
$var reg 1 $ \init\ $end
$var reg 1 % \reset\ $end
$var reg 32 & \result\[31:0] $end
$scope module uut $end
$var reg 1 ' \init\ $end
$var reg 1 ( \done\ $end
$var reg 32 ) \result\[31:0] $end
$var reg 1 * \clk\ $end
$var reg 1 + \reset\ $end
$var reg 1 , \clear\ $end
$var reg 32 - s0[31:0] $end
$var reg 32 . s1[31:0] $end
$var reg 32 / s2[31:0] $end
$var reg 32 0 s3[31:0] $end
$var reg 32 1 s4[31:0] $end
$var reg 32 2 s5[31:0] $end
$var reg 32 3 s00[31:0] $end
$var reg 1 4 s6 $end
$var reg 1 5 s7[0:0] $end
$var reg 1 6 s8 $end
$var reg 1 7 sdone[0:0] $end
$scope module a $end
$var reg 32 8 data_in[31:0] $end
$var reg 11 9 address[10:0] $end
$var reg 1 : we $end
$var reg 1 ; oe $end
$var reg 1 < clk $end
$var reg 32 = data_out[31:0] $end
$var reg 11 > read_a[10:0] $end
$comment ram is not handled $end
$upscope $end
$scope module b $end
$var reg 32 ? data_in[31:0] $end
$var reg 11 @ address[10:0] $end
$var reg 1 A we $end
$var reg 1 B oe $end
$var reg 1 C clk $end
$var reg 32 D data_out[31:0] $end
$var reg 11 E read_a[10:0] $end
$comment ram is not handled $end
$upscope $end
$scope module \counter0\ $end
$var reg 32 F input[31:0] $end
$var reg 32 G termination[31:0] $end
$var reg 1 H clk $end
$var reg 1 I clk_en $end
$var reg 1 J reset $end
$var reg 1 K load $end
$var reg 1 L step $end
$var reg 1 M done $end
$var reg 32 N output[31:0] $end
$var reg 1 O shsteps[0:0] $end
$var reg 32 P value[31:0] $end
$var reg 1 Q init $end
$var reg 1 R stepi $end
$var reg 1 S cond $end
$upscope $end
$scope module \adder0\ $end
$var reg 1 T clk $end
$var reg 1 U reset $end
$var reg 1 V we $end
$var reg 1 W sel1[0:0] $end
$var reg 32 X i0[31:0] $end
$var reg 32 Y i1[31:0] $end
$var reg 32 Z o0[31:0] $end
$upscope $end
$scope module \mult0\ $end
$var reg 32 [ i0[31:0] $end
$var reg 32 \ i1[31:0] $end
$var reg 32 ] o0[31:0] $end
$upscope $end
$scope module \dly_16\ $end
$var reg 1 ^ a[0:0] $end
$var reg 1 _ clk $end
$var reg 1 ` reset $end
$var reg 1 a a_delayed[0:0] $end
$comment int is not handled $end
$upscope $end
$scope module \dly_17\ $end
$var reg 1 b a[0:0] $end
$var reg 1 c clk $end
$var reg 1 d reset $end
$var reg 1 e a_delayed[0:0] $end
$comment int is not handled $end
$upscope $end
$upscope $end
$enddefinitions $end
#0
0!
0"
0#
0$
1%
b00000000000000000000000000000000 &
0'
0(
b00000000000000000000000000000000 )
0*
1+
0,
b00000000000000000000000000000000 -
b00000000000000000000100000000000 .
b00000000000000000000000000000000 /
bUUUUUUUUUUUUUUUUUUUUUUUUUUUUUUUU 0
bUUUUUUUUUUUUUUUUUUUUUUUUUUUUUUUU 1
bXXXXXXXXXXXXXXXXXXXXXXXXXXXXXXXX 2
b00000000000000000000000000000000 3
04
b0 5
06
b0 7
b00000000000000000000000000000000 8
b00000000000 9
0:
1;
0<
bUUUUUUUUUUUUUUUUUUUUUUUUUUUUUUUU =
bUUUUUUUUUUU >
b00000000000000000000000000000000 ?
b00000000000 @
0A
1B
0C
bUUUUUUUUUUUUUUUUUUUUUUUUUUUUUUUU D
bUUUUUUUUUUU E
b00000000000000000000000000000000 F
b00000000000000000000100000000000 G
0H
0I
1J
0K
0L
0M
b00000000000000000000000000000000 N
b1 O
b00000000000000000000000000000000 P
1Q
0R
1S
0T
1U
0V
b1 W
b00000000000000000000000000000000 X
bXXXXXXXXXXXXXXXXXXXXXXXXXXXXXXXX Y
b00000000000000000000000000000000 Z
bUUUUUUUUUUUUUUUUUUUUUUUUUUUUUUUU [
bUUUUUUUUUUUUUUUUUUUUUUUUUUUUUUUU \
bXXXXXXXXXXXXXXXXXXXXXXXXXXXXXXXX ]
b0 ^
0_
1`
b0 a
b0 b
0c
1d
b0 e
#5000000
1"
1*
b00000000000000000000000000000001 0
b00000000000000000000000000000100 1
b00000000000000000000000000000100 2
1<
b00000000000000000000000000000001 =
b00000000000 >
1C
b00000000000000000000000000000100 D
b00000000000 E
1H
1T
b00000000000000000000000000000100 Y
b00000000000000000000000000000001 [
b00000000000000000000000000000100 \
b00000000000000000000000000000100 ]
1_
1c
#10000000
0"
0*
0<
0C
0H
0T
0_
0c
#15000000
1"
1*
1<
1C
1H
1T
1_
1c
#20000000
0"
0*
0<
0C
0H
0T
0_
0c
#25000000
1"
1*
1<
1C
1H
1T
1_
1c
#30000000
0"
0*
0<
0C
0H
0T
0_
0c
#35000000
1"
1*
1<
1C
1H
1T
1_
1c
#40000000
0"
0*
0<
0C
0H
0T
0_
0c
#45000000
1"
1*
1<
1C
1H
1T
1_
1c
#50000000
0"
0%
0*
0+
0<
0C
0H
0J
0T
0U
0_
0`
0c
0d
#55000000
1"
1*
1<
1C
1H
1T
1_
1c
#60000000
0"
0*
0<
0C
0H
0T
0_
0c
#65000000
1"
1*
1<
1C
1H
1T
1_
1c
#70000000
0"
0*
0<
0C
0H
0T
0_
0c
#75000000
1"
1*
1<
1C
1H
1T
1_
1c
#80000000
0"
0*
0<
0C
0H
0T
0_
0c
#85000000
1"
1*
1<
1C
1H
1T
1_
1c
#90000000
0"
0*
0<
0C
0H
0T
0_
0c
#95000000
1"
1*
1<
1C
1H
1T
1_
1c
#100000000
0"
1$
1'
0*
0<
0C
0H
1I
0T
0_
0c
#105000000
1"
1*
14
1<
1C
1H
1L
0Q
1R
1T
b1 ^
1_
1c
#110000000
0"
0*
0<
0C
0H
0T
0_
0c
#115000000
1"
1*
b00000000000000000000000000000001 3
b00000000001 9
1<
b00000000001 @
1C
1H
b00000000000000000000000000000001 N
b00000000000000000000000000000001 P
1T
1_
1c
#120000000
0"
0*
0<
0C
0H
0T
0_
0c
#125000000
1"
1*
b00000000000000000000000000000010 3
b1 5
b00000000010 9
1<
b00000000001 >
b00000000010 @
1C
b00000000001 E
1H
b00000000000000000000000000000010 N
b00000000000000000000000000000010 P
1T
1V
1_
b1 a
1c
#130000000
0"
0*
0<
0C
0H
0T
0_
0c
#135000000
1"
b00000000000000000000000000000100 &
b00000000000000000000000000000100 )
1*
b00000000000000000000000000000100 /
b00000000000000000000000000000010 0
b00000000000000000000000000000101 1
b00000000000000000000000000001010 2
b00000000000000000000000000000011 3
b00000000011 9
1<
b00000000000000000000000000000010 =
b00000000010 >
b00000000011 @
1C
b00000000000000000000000000000101 D
b00000000010 E
1H
b00000000000000000000000000000011 N
b00000000000000000000000000000011 P
1T
b00000000000000000000000000000100 X
b00000000000000000000000000001010 Y
b00000000000000000000000000000100 Z
b00000000000000000000000000000010 [
b00000000000000000000000000000101 \
b00000000000000000000000000001010 ]
1_
1c
#140000000
0"
0*
0<
0C
0H
0T
0_
0c
#145000000
1"
b00000000000000000000000000001110 &
b00000000000000000000000000001110 )
1*
b00000000000000000000000000001110 /
b00000000000000000000000000000011 0
b00000000000000000000000000000110 1
b00000000000000000000000000010010 2
b00000000000000000000000000000100 3
b00000000100 9
1<
b00000000000000000000000000000011 =
b00000000011 >
b00000000100 @
1C
b00000000000000000000000000000110 D
b00000000011 E
1H
b00000000000000000000000000000100 N
b00000000000000000000000000000100 P
1T
b00000000000000000000000000001110 X
b00000000000000000000000000010010 Y
b00000000000000000000000000001110 Z
b00000000000000000000000000000011 [
b00000000000000000000000000000110 \
b00000000000000000000000000010010 ]
1_
1c
#150000000
0"
0*
0<
0C
0H
0T
0_
0c
#155000000
1"
b00000000000000000000000000100000 &
b00000000000000000000000000100000 )
1*
b00000000000000000000000000100000 /
b00000000000000000000000000000000 0
b00000000000000000000000000000000 1
b00000000000000000000000000000000 2
b00000000000000000000000000000101 3
b00000000101 9
1<
b00000000000000000000000000000000 =
b00000000100 >
b00000000101 @
1C
b00000000000000000000000000000000 D
b00000000100 E
1H
b00000000000000000000000000000101 N
b00000000000000000000000000000101 P
1T
b00000000000000000000000000100000 X
b00000000000000000000000000000000 Y
b00000000000000000000000000100000 Z
b00000000000000000000000000000000 [
b00000000000000000000000000000000 \
b00000000000000000000000000000000 ]
1_
1c
#157000000
#160000000
0"
0*
0<
0C
0H
0T
0_
0c
#165000000
1"
1*
b00000000000000000000000000000110 3
b00000000110 9
1<
b00000000101 >
b00000000110 @
1C
b00000000101 E
1H
b00000000000000000000000000000110 N
b00000000000000000000000000000110 P
1T
1_
1c
#170000000
0"
0*
0<
0C
0H
0T
0_
0c
#175000000
1"
1*
b00000000000000000000000000000111 3
b00000000111 9
1<
b00000000110 >
b00000000111 @
1C
b00000000110 E
1H
b00000000000000000000000000000111 N
b00000000000000000000000000000111 P
1T
1_
1c
#180000000
0"
0*
0<
0C
0H
0T
0_
0c
#185000000
1"
1*
b00000000000000000000000000001000 3
b00000001000 9
1<
b00000000111 >
b00000001000 @
1C
b00000000111 E
1H
b00000000000000000000000000001000 N
b00000000000000000000000000001000 P
1T
1_
1c
#190000000
0"
0*
0<
0C
0H
0T
0_
0c
#195000000
1"
1*
b00000000000000000000000000001001 3
b00000001001 9
1<
b00000001000 >
b00000001001 @
1C
b00000001000 E
1H
b00000000000000000000000000001001 N
b00000000000000000000000000001001 P
1T
1_
1c
#200000000
0"
0*
0<
0C
0H
0T
0_
0c
#205000000
1"
1*
b00000000000000000000000000001010 3
b00000001010 9
1<
b00000001001 >
b00000001010 @
1C
b00000001001 E
1H
b00000000000000000000000000001010 N
b00000000000000000000000000001010 P
1T
1_
1c
#210000000
0"
0*
0<
0C
0H
0T
0_
0c
#215000000
1"
1*
b00000000000000000000000000001011 3
b00000001011 9
1<
b00000001010 >
b00000001011 @
1C
b00000001010 E
1H
b00000000000000000000000000001011 N
b00000000000000000000000000001011 P
1T
1_
1c
#220000000
0"
0*
0<
0C
0H
0T
0_
0c
#225000000
1"
1*
b00000000000000000000000000001100 3
b00000001100 9
1<
b00000001011 >
b00000001100 @
1C
b00000001011 E
1H
b00000000000000000000000000001100 N
b00000000000000000000000000001100 P
1T
1_
1c
#230000000
0"
0*
0<
0C
0H
0T
0_
0c
#235000000
1"
1*
b00000000000000000000000000001101 3
b00000001101 9
1<
b00000001100 >
b00000001101 @
1C
b00000001100 E
1H
b00000000000000000000000000001101 N
b00000000000000000000000000001101 P
1T
1_
1c
#240000000
0"
0*
0<
0C
0H
0T
0_
0c
#245000000
1"
1*
b00000000000000000000000000001110 3
b00000001110 9
1<
b00000001101 >
b00000001110 @
1C
b00000001101 E
1H
b00000000000000000000000000001110 N
b00000000000000000000000000001110 P
1T
1_
1c
#250000000
0"
0*
0<
0C
0H
0T
0_
0c
#255000000
1"
1*
b00000000000000000000000000001111 3
b00000001111 9
1<
b00000001110 >
b00000001111 @
1C
b00000001110 E
1H
b00000000000000000000000000001111 N
b00000000000000000000000000001111 P
1T
1_
1c
#260000000
0"
0*
0<
0C
0H
0T
0_
0c
#265000000
1"
1*
b00000000000000000000000000010000 3
b00000010000 9
1<
b00000001111 >
b00000010000 @
1C
b00000001111 E
1H
b00000000000000000000000000010000 N
b00000000000000000000000000010000 P
1T
1_
1c
#270000000
0"
0*
0<
0C
0H
0T
0_
0c
#275000000
1"
1*
b00000000000000000000000000010001 3
b00000010001 9
1<
b00000010000 >
b00000010001 @
1C
b00000010000 E
1H
b00000000000000000000000000010001 N
b00000000000000000000000000010001 P
1T
1_
1c
#280000000
0"
0*
0<
0C
0H
0T
0_
0c
#285000000
1"
1*
b00000000000000000000000000010010 3
b00000010010 9
1<
b00000010001 >
b00000010010 @
1C
b00000010001 E
1H
b00000000000000000000000000010010 N
b00000000000000000000000000010010 P
1T
1_
1c
#290000000
0"
0*
0<
0C
0H
0T
0_
0c
#295000000
1"
1*
b00000000000000000000000000010011 3
b00000010011 9
1<
b00000010010 >
b00000010011 @
1C
b00000010010 E
1H
b00000000000000000000000000010011 N
b00000000000000000000000000010011 P
1T
1_
1c
#300000000
0"
0*
0<
0C
0H
0T
0_
0c
#305000000
1"
1*
b00000000000000000000000000010100 3
b00000010100 9
1<
b00000010011 >
b00000010100 @
1C
b00000010011 E
1H
b00000000000000000000000000010100 N
b00000000000000000000000000010100 P
1T
1_
1c
#310000000
0"
0*
0<
0C
0H
0T
0_
0c
#315000000
1"
1*
b00000000000000000000000000010101 3
b00000010101 9
1<
b00000010100 >
b00000010101 @
1C
b00000010100 E
1H
b00000000000000000000000000010101 N
b00000000000000000000000000010101 P
1T
1_
1c
#320000000
0"
0*
0<
0C
0H
0T
0_
0c
#325000000
1"
1*
b00000000000000000000000000010110 3
b00000010110 9
1<
b00000010101 >
b00000010110 @
1C
b00000010101 E
1H
b00000000000000000000000000010110 N
b00000000000000000000000000010110 P
1T
1_
1c
#330000000
0"
0*
0<
0C
0H
0T
0_
0c
#335000000
1"
1*
b00000000000000000000000000010111 3
b00000010111 9
1<
b00000010110 >
b00000010111 @
1C
b00000010110 E
1H
b00000000000000000000000000010111 N
b00000000000000000000000000010111 P
1T
1_
1c
#340000000
0"
0*
0<
0C
0H
0T
0_
0c
#345000000
1"
1*
b00000000000000000000000000011000 3
b00000011000 9
1<
b00000010111 >
b00000011000 @
1C
b00000010111 E
1H
b00000000000000000000000000011000 N
b00000000000000000000000000011000 P
1T
1_
1c
#350000000
0"
0*
0<
0C
0H
0T
0_
0c
#355000000
1"
1*
b00000000000000000000000000011001 3
b00000011001 9
1<
b00000011000 >
b00000011001 @
1C
b00000011000 E
1H
b00000000000000000000000000011001 N
b00000000000000000000000000011001 P
1T
1_
1c
#360000000
0"
0*
0<
0C
0H
0T
0_
0c
#365000000
1"
1*
b00000000000000000000000000011010 3
b00000011010 9
1<
b00000011001 >
b00000011010 @
1C
b00000011001 E
1H
b00000000000000000000000000011010 N
b00000000000000000000000000011010 P
1T
1_
1c
#370000000
0"
0*
0<
0C
0H
0T
0_
0c
#375000000
1"
1*
b00000000000000000000000000011011 3
b00000011011 9
1<
b00000011010 >
b00000011011 @
1C
b00000011010 E
1H
b00000000000000000000000000011011 N
b00000000000000000000000000011011 P
1T
1_
1c
#380000000
0"
0*
0<
0C
0H
0T
0_
0c
#385000000
1"
1*
b00000000000000000000000000011100 3
b00000011100 9
1<
b00000011011 >
b00000011100 @
1C
b00000011011 E
1H
b00000000000000000000000000011100 N
b00000000000000000000000000011100 P
1T
1_
1c
#390000000
0"
0*
0<
0C
0H
0T
0_
0c
#395000000
1"
1*
b00000000000000000000000000011101 3
b00000011101 9
1<
b00000011100 >
b00000011101 @
1C
b00000011100 E
1H
b00000000000000000000000000011101 N
b00000000000000000000000000011101 P
1T
1_
1c
#400000000
0"
0*
0<
0C
0H
0T
0_
0c
#405000000
1"
1*
b00000000000000000000000000011110 3
b00000011110 9
1<
b00000011101 >
b00000011110 @
1C
b00000011101 E
1H
b00000000000000000000000000011110 N
b00000000000000000000000000011110 P
1T
1_
1c
#410000000
0"
0*
0<
0C
0H
0T
0_
0c
#415000000
1"
1*
b00000000000000000000000000011111 3
b00000011111 9
1<
b00000011110 >
b00000011111 @
1C
b00000011110 E
1H
b00000000000000000000000000011111 N
b00000000000000000000000000011111 P
1T
1_
1c
#420000000
0"
0*
0<
0C
0H
0T
0_
0c
#425000000
1"
1*
b00000000000000000000000000100000 3
b00000100000 9
1<
b00000011111 >
b00000100000 @
1C
b00000011111 E
1H
b00000000000000000000000000100000 N
b00000000000000000000000000100000 P
1T
1_
1c
#430000000
0"
0*
0<
0C
0H
0T
0_
0c
#435000000
1"
1*
b00000000000000000000000000100001 3
b00000100001 9
1<
b00000100000 >
b00000100001 @
1C
b00000100000 E
1H
b00000000000000000000000000100001 N
b00000000000000000000000000100001 P
1T
1_
1c
#440000000
0"
0*
0<
0C
0H
0T
0_
0c
#445000000
1"
1*
b00000000000000000000000000100010 3
b00000100010 9
1<
b00000100001 >
b00000100010 @
1C
b00000100001 E
1H
b00000000000000000000000000100010 N
b00000000000000000000000000100010 P
1T
1_
1c
#450000000
0"
0*
0<
0C
0H
0T
0_
0c
#455000000
1"
1*
b00000000000000000000000000100011 3
b00000100011 9
1<
b00000100010 >
b00000100011 @
1C
b00000100010 E
1H
b00000000000000000000000000100011 N
b00000000000000000000000000100011 P
1T
1_
1c
#460000000
0"
0*
0<
0C
0H
0T
0_
0c
#465000000
1"
1*
b00000000000000000000000000100100 3
b00000100100 9
1<
b00000100011 >
b00000100100 @
1C
b00000100011 E
1H
b00000000000000000000000000100100 N
b00000000000000000000000000100100 P
1T
1_
1c
#470000000
0"
0*
0<
0C
0H
0T
0_
0c
#475000000
1"
1*
b00000000000000000000000000100101 3
b00000100101 9
1<
b00000100100 >
b00000100101 @
1C
b00000100100 E
1H
b00000000000000000000000000100101 N
b00000000000000000000000000100101 P
1T
1_
1c
#480000000
0"
0*
0<
0C
0H
0T
0_
0c
#485000000
1"
1*
b00000000000000000000000000100110 3
b00000100110 9
1<
b00000100101 >
b00000100110 @
1C
b00000100101 E
1H
b00000000000000000000000000100110 N
b00000000000000000000000000100110 P
1T
1_
1c
#490000000
0"
0*
0<
0C
0H
0T
0_
0c
#495000000
1"
1*
b00000000000000000000000000100111 3
b00000100111 9
1<
b00000100110 >
b00000100111 @
1C
b00000100110 E
1H
b00000000000000000000000000100111 N
b00000000000000000000000000100111 P
1T
1_
1c
#500000000
0"
0*
0<
0C
0H
0T
0_
0c
#505000000
1"
1*
b00000000000000000000000000101000 3
b00000101000 9
1<
b00000100111 >
b00000101000 @
1C
b00000100111 E
1H
b00000000000000000000000000101000 N
b00000000000000000000000000101000 P
1T
1_
1c
#510000000
0"
0*
0<
0C
0H
0T
0_
0c
#515000000
1"
1*
b00000000000000000000000000101001 3
b00000101001 9
1<
b00000101000 >
b00000101001 @
1C
b00000101000 E
1H
b00000000000000000000000000101001 N
b00000000000000000000000000101001 P
1T
1_
1c
#520000000
0"
0*
0<
0C
0H
0T
0_
0c
#525000000
1"
1*
b00000000000000000000000000101010 3
b00000101010 9
1<
b00000101001 >
b00000101010 @
1C
b00000101001 E
1H
b00000000000000000000000000101010 N
b00000000000000000000000000101010 P
1T
1_
1c
#530000000
0"
0*
0<
0C
0H
0T
0_
0c
#535000000
1"
1*
b00000000000000000000000000101011 3
b00000101011 9
1<
b00000101010 >
b00000101011 @
1C
b00000101010 E
1H
b00000000000000000000000000101011 N
b00000000000000000000000000101011 P
1T
1_
1c
#540000000
0"
0*
0<
0C
0H
0T
0_
0c
#545000000
1"
1*
b00000000000000000000000000101100 3
b00000101100 9
1<
b00000101011 >
b00000101100 @
1C
b00000101011 E
1H
b00000000000000000000000000101100 N
b00000000000000000000000000101100 P
1T
1_
1c
#550000000
0"
0*
0<
0C
0H
0T
0_
0c
#555000000
1"
1*
b00000000000000000000000000101101 3
b00000101101 9
1<
b00000101100 >
b00000101101 @
1C
b00000101100 E
1H
b00000000000000000000000000101101 N
b00000000000000000000000000101101 P
1T
1_
1c
#560000000
0"
0*
0<
0C
0H
0T
0_
0c
#565000000
1"
1*
b00000000000000000000000000101110 3
b00000101110 9
1<
b00000101101 >
b00000101110 @
1C
b00000101101 E
1H
b00000000000000000000000000101110 N
b00000000000000000000000000101110 P
1T
1_
1c
#570000000
0"
0*
0<
0C
0H
0T
0_
0c
#575000000
1"
1*
b00000000000000000000000000101111 3
b00000101111 9
1<
b00000101110 >
b00000101111 @
1C
b00000101110 E
1H
b00000000000000000000000000101111 N
b00000000000000000000000000101111 P
1T
1_
1c
#580000000
0"
0*
0<
0C
0H
0T
0_
0c
#585000000
1"
1*
b00000000000000000000000000110000 3
b00000110000 9
1<
b00000101111 >
b00000110000 @
1C
b00000101111 E
1H
b00000000000000000000000000110000 N
b00000000000000000000000000110000 P
1T
1_
1c
#590000000
0"
0*
0<
0C
0H
0T
0_
0c
#595000000
1"
1*
b00000000000000000000000000110001 3
b00000110001 9
1<
b00000110000 >
b00000110001 @
1C
b00000110000 E
1H
b00000000000000000000000000110001 N
b00000000000000000000000000110001 P
1T
1_
1c
#600000000
0"
0*
0<
0C
0H
0T
0_
0c
#605000000
1"
1*
b00000000000000000000000000110010 3
b00000110010 9
1<
b00000110001 >
b00000110010 @
1C
b00000110001 E
1H
b00000000000000000000000000110010 N
b00000000000000000000000000110010 P
1T
1_
1c
#610000000
0"
0*
0<
0C
0H
0T
0_
0c
#615000000
1"
1*
b00000000000000000000000000110011 3
b00000110011 9
1<
b00000110010 >
b00000110011 @
1C
b00000110010 E
1H
b00000000000000000000000000110011 N
b00000000000000000000000000110011 P
1T
1_
1c
#620000000
0"
0*
0<
0C
0H
0T
0_
0c
#625000000
1"
1*
b00000000000000000000000000110100 3
b00000110100 9
1<
b00000110011 >
b00000110100 @
1C
b00000110011 E
1H
b00000000000000000000000000110100 N
b00000000000000000000000000110100 P
1T
1_
1c
#630000000
0"
0*
0<
0C
0H
0T
0_
0c
#635000000
1"
1*
b00000000000000000000000000110101 3
b00000110101 9
1<
b00000110100 >
b00000110101 @
1C
b00000110100 E
1H
b00000000000000000000000000110101 N
b00000000000000000000000000110101 P
1T
1_
1c
#640000000
0"
0*
0<
0C
0H
0T
0_
0c
#645000000
1"
1*
b00000000000000000000000000110110 3
b00000110110 9
1<
b00000110101 >
b00000110110 @
1C
b00000110101 E
1H
b00000000000000000000000000110110 N
b00000000000000000000000000110110 P
1T
1_
1c
#650000000
0"
0*
0<
0C
0H
0T
0_
0c
#655000000
1"
1*
b00000000000000000000000000110111 3
b00000110111 9
1<
b00000110110 >
b00000110111 @
1C
b00000110110 E
1H
b00000000000000000000000000110111 N
b00000000000000000000000000110111 P
1T
1_
1c
#660000000
0"
0*
0<
0C
0H
0T
0_
0c
#665000000
1"
1*
b00000000000000000000000000111000 3
b00000111000 9
1<
b00000110111 >
b00000111000 @
1C
b00000110111 E
1H
b00000000000000000000000000111000 N
b00000000000000000000000000111000 P
1T
1_
1c
#670000000
0"
0*
0<
0C
0H
0T
0_
0c
#675000000
1"
1*
b00000000000000000000000000111001 3
b00000111001 9
1<
b00000111000 >
b00000111001 @
1C
b00000111000 E
1H
b00000000000000000000000000111001 N
b00000000000000000000000000111001 P
1T
1_
1c
#680000000
0"
0*
0<
0C
0H
0T
0_
0c
#685000000
1"
1*
b00000000000000000000000000111010 3
b00000111010 9
1<
b00000111001 >
b00000111010 @
1C
b00000111001 E
1H
b00000000000000000000000000111010 N
b00000000000000000000000000111010 P
1T
1_
1c
#690000000
0"
0*
0<
0C
0H
0T
0_
0c
#695000000
1"
1*
b00000000000000000000000000111011 3
b00000111011 9
1<
b00000111010 >
b00000111011 @
1C
b00000111010 E
1H
b00000000000000000000000000111011 N
b00000000000000000000000000111011 P
1T
1_
1c
#700000000
0"
0*
0<
0C
0H
0T
0_
0c
#705000000
1"
1*
b00000000000000000000000000111100 3
b00000111100 9
1<
b00000111011 >
b00000111100 @
1C
b00000111011 E
1H
b00000000000000000000000000111100 N
b00000000000000000000000000111100 P
1T
1_
1c
#710000000
0"
0*
0<
0C
0H
0T
0_
0c
#715000000
1"
1*
b00000000000000000000000000111101 3
b00000111101 9
1<
b00000111100 >
b00000111101 @
1C
b00000111100 E
1H
b00000000000000000000000000111101 N
b00000000000000000000000000111101 P
1T
1_
1c
#720000000
0"
0*
0<
0C
0H
0T
0_
0c
#725000000
1"
1*
b00000000000000000000000000111110 3
b00000111110 9
1<
b00000111101 >
b00000111110 @
1C
b00000111101 E
1H
b00000000000000000000000000111110 N
b00000000000000000000000000111110 P
1T
1_
1c
#730000000
0"
0*
0<
0C
0H
0T
0_
0c
#735000000
1"
1*
b00000000000000000000000000111111 3
b00000111111 9
1<
b00000111110 >
b00000111111 @
1C
b00000111110 E
1H
b00000000000000000000000000111111 N
b00000000000000000000000000111111 P
1T
1_
1c
#740000000
0"
0*
0<
0C
0H
0T
0_
0c
#745000000
1"
1*
b00000000000000000000000001000000 3
b00001000000 9
1<
b00000111111 >
b00001000000 @
1C
b00000111111 E
1H
b00000000000000000000000001000000 N
b00000000000000000000000001000000 P
1T
1_
1c
#750000000
0"
0*
0<
0C
0H
0T
0_
0c
#755000000
1"
1*
b00000000000000000000000001000001 3
b00001000001 9
1<
b00001000000 >
b00001000001 @
1C
b00001000000 E
1H
b00000000000000000000000001000001 N
b00000000000000000000000001000001 P
1T
1_
1c
#760000000
0"
0*
0<
0C
0H
0T
0_
0c
#765000000
1"
1*
b00000000000000000000000001000010 3
b00001000010 9
1<
b00001000001 >
b00001000010 @
1C
b00001000001 E
1H
b00000000000000000000000001000010 N
b00000000000000000000000001000010 P
1T
1_
1c
#770000000
0"
0*
0<
0C
0H
0T
0_
0c
#775000000
1"
1*
b00000000000000000000000001000011 3
b00001000011 9
1<
b00001000010 >
b00001000011 @
1C
b00001000010 E
1H
b00000000000000000000000001000011 N
b00000000000000000000000001000011 P
1T
1_
1c
#780000000
0"
0*
0<
0C
0H
0T
0_
0c
#785000000
1"
1*
b00000000000000000000000001000100 3
b00001000100 9
1<
b00001000011 >
b00001000100 @
1C
b00001000011 E
1H
b00000000000000000000000001000100 N
b00000000000000000000000001000100 P
1T
1_
1c
#790000000
0"
0*
0<
0C
0H
0T
0_
0c
#795000000
1"
1*
b00000000000000000000000001000101 3
b00001000101 9
1<
b00001000100 >
b00001000101 @
1C
b00001000100 E
1H
b00000000000000000000000001000101 N
b00000000000000000000000001000101 P
1T
1_
1c
#800000000
0"
0*
0<
0C
0H
0T
0_
0c
#805000000
1"
1*
b00000000000000000000000001000110 3
b00001000110 9
1<
b00001000101 >
b00001000110 @
1C
b00001000101 E
1H
b00000000000000000000000001000110 N
b00000000000000000000000001000110 P
1T
1_
1c
#810000000
0"
0*
0<
0C
0H
0T
0_
0c
#815000000
1"
1*
b00000000000000000000000001000111 3
b00001000111 9
1<
b00001000110 >
b00001000111 @
1C
b00001000110 E
1H
b00000000000000000000000001000111 N
b00000000000000000000000001000111 P
1T
1_
1c
#820000000
0"
0*
0<
0C
0H
0T
0_
0c
#825000000
1"
1*
b00000000000000000000000001001000 3
b00001001000 9
1<
b00001000111 >
b00001001000 @
1C
b00001000111 E
1H
b00000000000000000000000001001000 N
b00000000000000000000000001001000 P
1T
1_
1c
#830000000
0"
0*
0<
0C
0H
0T
0_
0c
#835000000
1"
1*
b00000000000000000000000001001001 3
b00001001001 9
1<
b00001001000 >
b00001001001 @
1C
b00001001000 E
1H
b00000000000000000000000001001001 N
b00000000000000000000000001001001 P
1T
1_
1c
#840000000
0"
0*
0<
0C
0H
0T
0_
0c
#845000000
1"
1*
b00000000000000000000000001001010 3
b00001001010 9
1<
b00001001001 >
b00001001010 @
1C
b00001001001 E
1H
b00000000000000000000000001001010 N
b00000000000000000000000001001010 P
1T
1_
1c
#850000000
0"
0*
0<
0C
0H
0T
0_
0c
#855000000
1"
1*
b00000000000000000000000001001011 3
b00001001011 9
1<
b00001001010 >
b00001001011 @
1C
b00001001010 E
1H
b00000000000000000000000001001011 N
b00000000000000000000000001001011 P
1T
1_
1c
#860000000
0"
0*
0<
0C
0H
0T
0_
0c
#865000000
1"
1*
b00000000000000000000000001001100 3
b00001001100 9
1<
b00001001011 >
b00001001100 @
1C
b00001001011 E
1H
b00000000000000000000000001001100 N
b00000000000000000000000001001100 P
1T
1_
1c
#870000000
0"
0*
0<
0C
0H
0T
0_
0c
#875000000
1"
1*
b00000000000000000000000001001101 3
b00001001101 9
1<
b00001001100 >
b00001001101 @
1C
b00001001100 E
1H
b00000000000000000000000001001101 N
b00000000000000000000000001001101 P
1T
1_
1c
#880000000
0"
0*
0<
0C
0H
0T
0_
0c
#885000000
1"
1*
b00000000000000000000000001001110 3
b00001001110 9
1<
b00001001101 >
b00001001110 @
1C
b00001001101 E
1H
b00000000000000000000000001001110 N
b00000000000000000000000001001110 P
1T
1_
1c
#890000000
0"
0*
0<
0C
0H
0T
0_
0c
#895000000
1"
1*
b00000000000000000000000001001111 3
b00001001111 9
1<
b00001001110 >
b00001001111 @
1C
b00001001110 E
1H
b00000000000000000000000001001111 N
b00000000000000000000000001001111 P
1T
1_
1c
#900000000
0"
0*
0<
0C
0H
0T
0_
0c
#905000000
1"
1*
b00000000000000000000000001010000 3
b00001010000 9
1<
b00001001111 >
b00001010000 @
1C
b00001001111 E
1H
b00000000000000000000000001010000 N
b00000000000000000000000001010000 P
1T
1_
1c
#910000000
0"
0*
0<
0C
0H
0T
0_
0c
#915000000
1"
1*
b00000000000000000000000001010001 3
b00001010001 9
1<
b00001010000 >
b00001010001 @
1C
b00001010000 E
1H
b00000000000000000000000001010001 N
b00000000000000000000000001010001 P
1T
1_
1c
#920000000
0"
0*
0<
0C
0H
0T
0_
0c
#925000000
1"
1*
b00000000000000000000000001010010 3
b00001010010 9
1<
b00001010001 >
b00001010010 @
1C
b00001010001 E
1H
b00000000000000000000000001010010 N
b00000000000000000000000001010010 P
1T
1_
1c
#930000000
0"
0*
0<
0C
0H
0T
0_
0c
#935000000
1"
1*
b00000000000000000000000001010011 3
b00001010011 9
1<
b00001010010 >
b00001010011 @
1C
b00001010010 E
1H
b00000000000000000000000001010011 N
b00000000000000000000000001010011 P
1T
1_
1c
#940000000
0"
0*
0<
0C
0H
0T
0_
0c
#945000000
1"
1*
b00000000000000000000000001010100 3
b00001010100 9
1<
b00001010011 >
b00001010100 @
1C
b00001010011 E
1H
b00000000000000000000000001010100 N
b00000000000000000000000001010100 P
1T
1_
1c
#950000000
0"
0*
0<
0C
0H
0T
0_
0c
